--->http://localhost/new-api/public/index.php?s=Currency.receive.addcursd&uid=15844&money_type=jifen&num=10&token=123456789
--->http://localhost/new-api/public/index.php?s=Currency.receive.addcursd&uid=15844&money_type=jifen&num=10&token=123456789
ejZ0BFm7ITWO2eAE--->http://localhost/new-api/public/index.php?s=Currency.receive.addcursd&uid=15844&money_type=jifen&num=10&token=456789
dV26s5jIkhh98eq4--->http://localhost/new-api/public/index.php?s=Currency.receive.addcursd&uid=15844&money_type=jifen&num=10&token=456789
gfAXGdtnKc10q8rC--->http://localhost/new-api/public/index.php?s=Currency.receive.addcursd&uid=15844&money_type=jifen&num=10&token=456789
mrKIg6YB8tHR8GiP--->http://localhost/new-api/public/index.php?s=Currency.receive.addcursd&uid=15844&money_type=jifen&num=10&token=456789
nBOVwW15NnCdzdZR--->http://localhost/new-api/public/index.php?s=Currency.receive.addcursd&uid=15844&money_type=jifen&num=10&token=456789
JwiEBXibZc3ark9q--->http://localhost/new-api/public/index.php?s=Currency.receive.addcursd&uid=15844&money_type=jifen&num=10&token=456789
WcH8iRhYlcmX9ctf--->http://localhost/new-api/public/index.php?s=Currency.receive.addcursd&uid=15844&money_type=jifen&num=10&token=456789
rga7CKZRT8CJdPMm--->http://localhost/new-api/public/index.php?s=Currency.receive.addcursd&uid=15844&money_type=jifen&num=10&token=456789
u4rnl8XMt8SQdtXR--->http://localhost/new-api/public/index.php?s=Currency.receive.addcursd&uid=15844&money_type=jifen&num=10&token=456789
dgqqD3U14hlCYpb8--->http://localhost/new-api/public/index.php?s=Currency.receive.addcursd&uid=15844&money_type=jifen&num=10&token=456789
znqMoEv80pb5KGET1531896838--->http://localhost/new-api/public/index.php?s=Currency.receive.addcursd&uid=15844&money_type=jifen&num=10&token=456789
nCGTxtQUaHlPHZa41531896840--->http://localhost/new-api/public/index.php?s=Currency.receive.addcursd&uid=15844&money_type=jifen&num=10&token=456789
Fc3wdHABy9x6HPus1531896871--->http://localhost/new-api/public/index.php?s=Currency.receive.addcursd&uid=15844&money_type=jifen&num=10&token=456789
--->http://localhost/new-api/public/index.php?s=Currency.receive.addcursd&uid=15844&money_type=jifen&num=10&token=123456789
Uq7MGCEgZlHsiTZS1531897185--->http://localhost/new-api/public/index.php?s=Currency.receive.addcursd&uid=15844&money_type=jifen&num=10&token=123456789_
Array--->http://localhost/new-api/public/index.php?s=Currency.receive.addcursd&uid=15844&money_type=jifen&num=10&token=123456789
LONoplG10qjCTedC1531901608--->http://localhost/new-api/public/index.php?s=Currency.receive.addcursd&uid=15844&money_type=jifen&num=10&token=123456789_
Content-Type: application/json;charset=utf-8--->http://localhost/new-api/public/index.php?s=Currency.receive.addcursd&uid=15844&money_type=jifen&num=10&token=123456789
ax40356f0VwYVF0y1531901646--->http://localhost/new-api/public/index.php?s=Currency.receive.addcursd&uid=15844&money_type=jifen&num=10&token=45679
akSeF7wuvU57g8J31531902192--->http://localhost/new-api/public/index.php?s=Push.Push.pushtype&uid=15844&type=jifen&code=10&token=45679&statu=123456
akSeF7wuvU57g8J31531902192--->test.yusj.vip?s=User.User.Tokenverify&token=45679
返回结果:{"ret":200,"data":false,"msg":"","debug":{"stack":["[#0 - 0ms]\/home\/www\/default\/test\/public\/index.php(8)","[#1 - 99.8ms - PHALAPI_RESPONSE]\/home\/www\/default\/test\/vendor\/phalapi\/kernal\/src\/PhalApi.php(46)","[#2 - 111.9ms - PHALAPI_FINISH]\/home\/www\/default\/test\/vendor\/phalapi\/kernal\/src\/PhalApi.php(74)"],"sqls":["[1 - 0.9ms]SELECT * FROM api_user_token WHERE (token = '45679') LIMIT 1;"],"version":"2.2.3"}}
OlDdwmfLJ5RHWw1V1531902199--->http://localhost/new-api/public/index.php?s=Push.Push.pushtype&uid=15844&type=jifen&code=10&token=45679&statu=123456
OlDdwmfLJ5RHWw1V1531902199--->test.yusj.vip?s=User.User.Tokenverify&token=45679
返回结果:{"ret":200,"data":false,"msg":"","debug":{"stack":["[#0 - 0ms]\/home\/www\/default\/test\/public\/index.php(8)","[#1 - 99.2ms - PHALAPI_RESPONSE]\/home\/www\/default\/test\/vendor\/phalapi\/kernal\/src\/PhalApi.php(46)","[#2 - 110.8ms - PHALAPI_FINISH]\/home\/www\/default\/test\/vendor\/phalapi\/kernal\/src\/PhalApi.php(74)"],"sqls":["[1 - 0.88ms]SELECT * FROM api_user_token WHERE (token = '45679') LIMIT 1;"],"version":"2.2.3"}}
NaoQFBJ8bvNajTZa1531902206--->http://localhost/new-api/public/index.php?s=Push.Push.pushtype&uid=15844&type=jifen&code=10&token=45679&statu=123456
NaoQFBJ8bvNajTZa1531902206--->test.yusj.vip?s=User.User.Tokenverify&token=45679
返回结果:{"ret":200,"data":false,"msg":"","debug":{"stack":["[#0 - 0ms]\/home\/www\/default\/test\/public\/index.php(8)","[#1 - 99.4ms - PHALAPI_RESPONSE]\/home\/www\/default\/test\/vendor\/phalapi\/kernal\/src\/PhalApi.php(46)","[#2 - 119.3ms - PHALAPI_FINISH]\/home\/www\/default\/test\/vendor\/phalapi\/kernal\/src\/PhalApi.php(74)"],"sqls":["[1 - 0.78ms]SELECT * FROM api_user_token WHERE (token = '45679') LIMIT 1;"],"version":"2.2.3"}}
EpWrlSTBxkLSIA6E1531902246--->http://localhost/new-api/public/index.php?s=Push.Push.pushtype&uid=15844&type=jifen&code=10&token=cOLoKtPsTXzwiSpx&statu=123456
EpWrlSTBxkLSIA6E1531902246--->test.yusj.vip?s=User.User.Tokenverify&token=cOLoKtPsTXzwiSpx
返回结果:{"ret":200,"data":"20057","msg":"","debug":{"stack":["[#0 - 0ms]\/home\/www\/default\/test\/public\/index.php(8)","[#1 - 99.8ms - PHALAPI_RESPONSE]\/home\/www\/default\/test\/vendor\/phalapi\/kernal\/src\/PhalApi.php(46)","[#2 - 102.7ms - PHALAPI_FINISH]\/home\/www\/default\/test\/vendor\/phalapi\/kernal\/src\/PhalApi.php(74)"],"sqls":[],"version":"2.2.3"}}
--->http://localhost/new-api/public/index.php?s=Push.Push.pushtype&uid=15844&type=jifen&code=10&token=123456789&statu=123456_______________
--->test.yusj.vip?s=User.User.Tokenverify&token=123456789
返回结果:{"ret":200,"data":false,"msg":"","debug":{"stack":["[#0 - 0ms]\/home\/www\/default\/test\/public\/index.php(8)","[#1 - 94.7ms - PHALAPI_RESPONSE]\/home\/www\/default\/test\/vendor\/phalapi\/kernal\/src\/PhalApi.php(46)","[#2 - 106.4ms - PHALAPI_FINISH]\/home\/www\/default\/test\/vendor\/phalapi\/kernal\/src\/PhalApi.php(74)"],"sqls":["[1 - 0.83ms]SELECT * FROM api_user_token WHERE (token = '123456789') LIMIT 1;"],"version":"2.2.3"}}
--->http://localhost/new-api/public/index.php?s=Push.Push.pushtype&uid=15844&type=jifen&code=10&token=123456789&statu=123456______________
--->test.yusj.vip?s=User.User.Tokenverify&token=123456789
返回结果:{"ret":200,"data":false,"msg":"","debug":{"stack":["[#0 - 0ms]\/home\/www\/default\/test\/public\/index.php(8)","[#1 - 152.2ms - PHALAPI_RESPONSE]\/home\/www\/default\/test\/vendor\/phalapi\/kernal\/src\/PhalApi.php(46)","[#2 - 165.4ms - PHALAPI_FINISH]\/home\/www\/default\/test\/vendor\/phalapi\/kernal\/src\/PhalApi.php(74)"],"sqls":["[1 - 0.96ms]SELECT * FROM api_user_token WHERE (token = '123456789') LIMIT 1;"],"version":"2.2.3"}}
--->http://localhost/new-api/public/index.php?s=Push.Push.pushtype&uid=15844&type=jifen&code=10&token=123456789&statu=123456_____________
--->test.yusj.vip?s=User.User.Tokenverify&token=123456789
返回结果:{"ret":200,"data":false,"msg":"","debug":{"stack":["[#0 - 0ms]\/home\/www\/default\/test\/public\/index.php(8)","[#1 - 91.4ms - PHALAPI_RESPONSE]\/home\/www\/default\/test\/vendor\/phalapi\/kernal\/src\/PhalApi.php(46)","[#2 - 102.4ms - PHALAPI_FINISH]\/home\/www\/default\/test\/vendor\/phalapi\/kernal\/src\/PhalApi.php(74)"],"sqls":["[1 - 0.93ms]SELECT * FROM api_user_token WHERE (token = '123456789') LIMIT 1;"],"version":"2.2.3"}}
--->http://localhost/new-api/public/index.php?s=Push.Push.pushtype&uid=15844&type=jifen&code=10&token=123456789&statu=123456____________
--->test.yusj.vip?s=User.User.Tokenverify&token=123456789
返回结果:{"ret":200,"data":false,"msg":"","debug":{"stack":["[#0 - 0ms]\/home\/www\/default\/test\/public\/index.php(8)","[#1 - 91.3ms - PHALAPI_RESPONSE]\/home\/www\/default\/test\/vendor\/phalapi\/kernal\/src\/PhalApi.php(46)","[#2 - 102.8ms - PHALAPI_FINISH]\/home\/www\/default\/test\/vendor\/phalapi\/kernal\/src\/PhalApi.php(74)"],"sqls":["[1 - 0.88ms]SELECT * FROM api_user_token WHERE (token = '123456789') LIMIT 1;"],"version":"2.2.3"}}
--->http://localhost/new-api/public/index.php?s=Push.Push.pushtype&uid=15844&type=jifen&code=10&token=123456789&statu=123456___________
--->test.yusj.vip?s=User.User.Tokenverify&token=123456789
返回结果:{"ret":200,"data":false,"msg":"","debug":{"stack":["[#0 - 0ms]\/home\/www\/default\/test\/public\/index.php(8)","[#1 - 90.9ms - PHALAPI_RESPONSE]\/home\/www\/default\/test\/vendor\/phalapi\/kernal\/src\/PhalApi.php(46)","[#2 - 102.2ms - PHALAPI_FINISH]\/home\/www\/default\/test\/vendor\/phalapi\/kernal\/src\/PhalApi.php(74)"],"sqls":["[1 - 0.95ms]SELECT * FROM api_user_token WHERE (token = '123456789') LIMIT 1;"],"version":"2.2.3"}}
--->http://localhost/new-api/public/index.php?s=Push.Push.pushtype&uid=15844&type=jifen&code=10&token=123456789&statu=123456__________
--->test.yusj.vip?s=User.User.Tokenverify&token=123456789
返回结果:{"ret":200,"data":false,"msg":"","debug":{"stack":["[#0 - 0ms]\/home\/www\/default\/test\/public\/index.php(8)","[#1 - 90.8ms - PHALAPI_RESPONSE]\/home\/www\/default\/test\/vendor\/phalapi\/kernal\/src\/PhalApi.php(46)","[#2 - 101.8ms - PHALAPI_FINISH]\/home\/www\/default\/test\/vendor\/phalapi\/kernal\/src\/PhalApi.php(74)"],"sqls":["[1 - 0.87ms]SELECT * FROM api_user_token WHERE (token = '123456789') LIMIT 1;"],"version":"2.2.3"}}
--->http://localhost/new-api/public/index.php?s=Push.Push.pushtype&uid=15844&type=jifen&code=10&token=123456789&statu=123456_________
--->test.yusj.vip?s=User.User.Tokenverify&token=123456789
返回结果:{"ret":200,"data":false,"msg":"","debug":{"stack":["[#0 - 0ms]\/home\/www\/default\/test\/public\/index.php(8)","[#1 - 89ms - PHALAPI_RESPONSE]\/home\/www\/default\/test\/vendor\/phalapi\/kernal\/src\/PhalApi.php(46)","[#2 - 100.2ms - PHALAPI_FINISH]\/home\/www\/default\/test\/vendor\/phalapi\/kernal\/src\/PhalApi.php(74)"],"sqls":["[1 - 0.78ms]SELECT * FROM api_user_token WHERE (token = '123456789') LIMIT 1;"],"version":"2.2.3"}}
--->http://localhost/new-api/public/index.php?s=Push.Push.pushtype&uid=15844&type=jifen&code=10&token=123456789&statu=123456________
--->test.yusj.vip?s=User.User.Tokenverify&token=123456789
返回结果:{"ret":200,"data":false,"msg":"","debug":{"stack":["[#0 - 0ms]\/home\/www\/default\/test\/public\/index.php(8)","[#1 - 93.5ms - PHALAPI_RESPONSE]\/home\/www\/default\/test\/vendor\/phalapi\/kernal\/src\/PhalApi.php(46)","[#2 - 107.7ms - PHALAPI_FINISH]\/home\/www\/default\/test\/vendor\/phalapi\/kernal\/src\/PhalApi.php(74)"],"sqls":["[1 - 1.18ms]SELECT * FROM api_user_token WHERE (token = '123456789') LIMIT 1;"],"version":"2.2.3"}}
--->http://localhost/new-api/public/index.php?s=Push.Push.pushtype&uid=15844&type=jifen&code=10&token=123456789&statu=123456_______
--->test.yusj.vip?s=User.User.Tokenverify&token=123456789
返回结果:{"ret":200,"data":false,"msg":"","debug":{"stack":["[#0 - 0ms]\/home\/www\/default\/test\/public\/index.php(8)","[#1 - 105.5ms - PHALAPI_RESPONSE]\/home\/www\/default\/test\/vendor\/phalapi\/kernal\/src\/PhalApi.php(46)","[#2 - 118.7ms - PHALAPI_FINISH]\/home\/www\/default\/test\/vendor\/phalapi\/kernal\/src\/PhalApi.php(74)"],"sqls":["[1 - 1.01ms]SELECT * FROM api_user_token WHERE (token = '123456789') LIMIT 1;"],"version":"2.2.3"}}
--->http://localhost/new-api/public/index.php?s=Push.Push.pushtype&uid=15844&type=jifen&code=10&token=123456789&statu=123456______
--->test.yusj.vip?s=User.User.Tokenverify&token=123456789
返回结果:{"ret":200,"data":false,"msg":"","debug":{"stack":["[#0 - 0ms]\/home\/www\/default\/test\/public\/index.php(8)","[#1 - 104.1ms - PHALAPI_RESPONSE]\/home\/www\/default\/test\/vendor\/phalapi\/kernal\/src\/PhalApi.php(46)","[#2 - 116.3ms - PHALAPI_FINISH]\/home\/www\/default\/test\/vendor\/phalapi\/kernal\/src\/PhalApi.php(74)"],"sqls":["[1 - 1ms]SELECT * FROM api_user_token WHERE (token = '123456789') LIMIT 1;"],"version":"2.2.3"}}
--->http://localhost/new-api/public/index.php?s=Push.Push.pushtype&uid=15844&type=jifen&code=10&token=123456789&statu=123456_____
--->test.yusj.vip?s=User.User.Tokenverify&token=123456789
返回结果:{"ret":200,"data":false,"msg":"","debug":{"stack":["[#0 - 0ms]\/home\/www\/default\/test\/public\/index.php(8)","[#1 - 101.6ms - PHALAPI_RESPONSE]\/home\/www\/default\/test\/vendor\/phalapi\/kernal\/src\/PhalApi.php(46)","[#2 - 112.9ms - PHALAPI_FINISH]\/home\/www\/default\/test\/vendor\/phalapi\/kernal\/src\/PhalApi.php(74)"],"sqls":["[1 - 0.97ms]SELECT * FROM api_user_token WHERE (token = '123456789') LIMIT 1;"],"version":"2.2.3"}}
--->http://localhost/new-api/public/index.php?s=Push.Push.pushtype&uid=15844&type=jifen&code=10&token=123456789&statu=123456____
--->test.yusj.vip?s=User.User.Tokenverify&token=123456789
返回结果:{"ret":200,"data":false,"msg":"","debug":{"stack":["[#0 - 0ms]\/home\/www\/default\/test\/public\/index.php(8)","[#1 - 100.3ms - PHALAPI_RESPONSE]\/home\/www\/default\/test\/vendor\/phalapi\/kernal\/src\/PhalApi.php(46)","[#2 - 113.5ms - PHALAPI_FINISH]\/home\/www\/default\/test\/vendor\/phalapi\/kernal\/src\/PhalApi.php(74)"],"sqls":["[1 - 0.96ms]SELECT * FROM api_user_token WHERE (token = '123456789') LIMIT 1;"],"version":"2.2.3"}}
--->http://localhost/new-api/public/index.php?s=Push.Push.pushtype&uid=15844&type=jifen&code=10&token=123456789&statu=123456___
--->test.yusj.vip?s=User.User.Tokenverify&token=123456789
返回结果:{"ret":200,"data":false,"msg":"","debug":{"stack":["[#0 - 0ms]\/home\/www\/default\/test\/public\/index.php(8)","[#1 - 99.5ms - PHALAPI_RESPONSE]\/home\/www\/default\/test\/vendor\/phalapi\/kernal\/src\/PhalApi.php(46)","[#2 - 111.2ms - PHALAPI_FINISH]\/home\/www\/default\/test\/vendor\/phalapi\/kernal\/src\/PhalApi.php(74)"],"sqls":["[1 - 0.88ms]SELECT * FROM api_user_token WHERE (token = '123456789') LIMIT 1;"],"version":"2.2.3"}}
--->http://localhost/new-api/public/index.php?s=Push.Push.pushtype&uid=15844&type=jifen&code=10&token=123456789&statu=123456__
--->test.yusj.vip?s=User.User.Tokenverify&token=123456789
返回结果:{"ret":200,"data":false,"msg":"","debug":{"stack":["[#0 - 0ms]\/home\/www\/default\/test\/public\/index.php(8)","[#1 - 98.5ms - PHALAPI_RESPONSE]\/home\/www\/default\/test\/vendor\/phalapi\/kernal\/src\/PhalApi.php(46)","[#2 - 109.8ms - PHALAPI_FINISH]\/home\/www\/default\/test\/vendor\/phalapi\/kernal\/src\/PhalApi.php(74)"],"sqls":["[1 - 0.91ms]SELECT * FROM api_user_token WHERE (token = '123456789') LIMIT 1;"],"version":"2.2.3"}}
--->http://localhost/new-api/public/index.php?s=Push.Push.pushtype&uid=15844&type=jifen&code=10&token=123456789&statu=123456_
--->test.yusj.vip?s=User.User.Tokenverify&token=123456789
返回结果:{"ret":200,"data":false,"msg":"","debug":{"stack":["[#0 - 0ms]\/home\/www\/default\/test\/public\/index.php(8)","[#1 - 98.6ms - PHALAPI_RESPONSE]\/home\/www\/default\/test\/vendor\/phalapi\/kernal\/src\/PhalApi.php(46)","[#2 - 110.3ms - PHALAPI_FINISH]\/home\/www\/default\/test\/vendor\/phalapi\/kernal\/src\/PhalApi.php(74)"],"sqls":["[1 - 0.89ms]SELECT * FROM api_user_token WHERE (token = '123456789') LIMIT 1;"],"version":"2.2.3"}}
--->http://localhost/new-api/public/index.php?s=Push.Push.pushtype&uid=15844&type=jifen&code=10&token=123456789&statu=123456
--->test.yusj.vip?s=User.User.Tokenverify&token=123456789
返回结果:{"ret":200,"data":false,"msg":"","debug":{"stack":["[#0 - 0ms]\/home\/www\/default\/test\/public\/index.php(8)","[#1 - 98.5ms - PHALAPI_RESPONSE]\/home\/www\/default\/test\/vendor\/phalapi\/kernal\/src\/PhalApi.php(46)","[#2 - 109.9ms - PHALAPI_FINISH]\/home\/www\/default\/test\/vendor\/phalapi\/kernal\/src\/PhalApi.php(74)"],"sqls":["[1 - 0.78ms]SELECT * FROM api_user_token WHERE (token = '123456789') LIMIT 1;"],"version":"2.2.3"}}
--->http://localhost/new-api/public/index.php?s=Push.Push.pushtype&uid=15844&type=jifen&code=10&token=123456789&statu=123456_______________
--->test.yusj.vip?s=User.User.Tokenverify&token=123456789
返回结果:{"ret":200,"data":false,"msg":"","debug":{"stack":["[#0 - 0ms]\/home\/www\/default\/test\/public\/index.php(8)","[#1 - 102.2ms - PHALAPI_RESPONSE]\/home\/www\/default\/test\/vendor\/phalapi\/kernal\/src\/PhalApi.php(46)","[#2 - 114.1ms - PHALAPI_FINISH]\/home\/www\/default\/test\/vendor\/phalapi\/kernal\/src\/PhalApi.php(74)"],"sqls":["[1 - 0.84ms]SELECT * FROM api_user_token WHERE (token = '123456789') LIMIT 1;"],"version":"2.2.3"}}
--->http://localhost/new-api/public/index.php?s=Push.Push.pushtype&uid=15844&type=jifen&code=10&token=123456789&statu=123456______________
--->test.yusj.vip?s=User.User.Tokenverify&token=123456789
返回结果:{"ret":200,"data":false,"msg":"","debug":{"stack":["[#0 - 0ms]\/home\/www\/default\/test\/public\/index.php(8)","[#1 - 101.5ms - PHALAPI_RESPONSE]\/home\/www\/default\/test\/vendor\/phalapi\/kernal\/src\/PhalApi.php(46)","[#2 - 114.2ms - PHALAPI_FINISH]\/home\/www\/default\/test\/vendor\/phalapi\/kernal\/src\/PhalApi.php(74)"],"sqls":["[1 - 1.01ms]SELECT * FROM api_user_token WHERE (token = '123456789') LIMIT 1;"],"version":"2.2.3"}}
--->http://localhost/new-api/public/index.php?s=Push.Push.pushtype&uid=15844&type=jifen&code=10&token=123456789&statu=123456_____________
--->test.yusj.vip?s=User.User.Tokenverify&token=123456789
返回结果:{"ret":200,"data":false,"msg":"","debug":{"stack":["[#0 - 0ms]\/home\/www\/default\/test\/public\/index.php(8)","[#1 - 100ms - PHALAPI_RESPONSE]\/home\/www\/default\/test\/vendor\/phalapi\/kernal\/src\/PhalApi.php(46)","[#2 - 112.2ms - PHALAPI_FINISH]\/home\/www\/default\/test\/vendor\/phalapi\/kernal\/src\/PhalApi.php(74)"],"sqls":["[1 - 1.03ms]SELECT * FROM api_user_token WHERE (token = '123456789') LIMIT 1;"],"version":"2.2.3"}}
--->http://localhost/new-api/public/index.php?s=Push.Push.pushtype&uid=15844&type=jifen&code=10&token=123456789&statu=123456____________
--->test.yusj.vip?s=User.User.Tokenverify&token=123456789
返回结果:{"ret":200,"data":false,"msg":"","debug":{"stack":["[#0 - 0ms]\/home\/www\/default\/test\/public\/index.php(8)","[#1 - 91.2ms - PHALAPI_RESPONSE]\/home\/www\/default\/test\/vendor\/phalapi\/kernal\/src\/PhalApi.php(46)","[#2 - 102.7ms - PHALAPI_FINISH]\/home\/www\/default\/test\/vendor\/phalapi\/kernal\/src\/PhalApi.php(74)"],"sqls":["[1 - 0.94ms]SELECT * FROM api_user_token WHERE (token = '123456789') LIMIT 1;"],"version":"2.2.3"}}
--->http://localhost/new-api/public/index.php?s=Push.Push.pushtype&uid=15844&type=jifen&code=10&token=123456789&statu=123456___________
--->test.yusj.vip?s=User.User.Tokenverify&token=123456789
返回结果:{"ret":200,"data":false,"msg":"","debug":{"stack":["[#0 - 0ms]\/home\/www\/default\/test\/public\/index.php(8)","[#1 - 100.5ms - PHALAPI_RESPONSE]\/home\/www\/default\/test\/vendor\/phalapi\/kernal\/src\/PhalApi.php(46)","[#2 - 112ms - PHALAPI_FINISH]\/home\/www\/default\/test\/vendor\/phalapi\/kernal\/src\/PhalApi.php(74)"],"sqls":["[1 - 0.83ms]SELECT * FROM api_user_token WHERE (token = '123456789') LIMIT 1;"],"version":"2.2.3"}}
--->http://localhost/new-api/public/index.php?s=Push.Push.pushtype&uid=15844&type=jifen&code=10&token=123456789&statu=123456__________
--->test.yusj.vip?s=User.User.Tokenverify&token=123456789
返回结果:{"ret":200,"data":false,"msg":"","debug":{"stack":["[#0 - 0ms]\/home\/www\/default\/test\/public\/index.php(8)","[#1 - 98.8ms - PHALAPI_RESPONSE]\/home\/www\/default\/test\/vendor\/phalapi\/kernal\/src\/PhalApi.php(46)","[#2 - 110.3ms - PHALAPI_FINISH]\/home\/www\/default\/test\/vendor\/phalapi\/kernal\/src\/PhalApi.php(74)"],"sqls":["[1 - 0.87ms]SELECT * FROM api_user_token WHERE (token = '123456789') LIMIT 1;"],"version":"2.2.3"}}
--->http://localhost/new-api/public/index.php?s=Push.Push.pushtype&uid=15844&type=jifen&code=10&token=123456789&statu=123456_________
--->test.yusj.vip?s=User.User.Tokenverify&token=123456789
返回结果:{"ret":200,"data":false,"msg":"","debug":{"stack":["[#0 - 0ms]\/home\/www\/default\/test\/public\/index.php(8)","[#1 - 99ms - PHALAPI_RESPONSE]\/home\/www\/default\/test\/vendor\/phalapi\/kernal\/src\/PhalApi.php(46)","[#2 - 110.6ms - PHALAPI_FINISH]\/home\/www\/default\/test\/vendor\/phalapi\/kernal\/src\/PhalApi.php(74)"],"sqls":["[1 - 0.88ms]SELECT * FROM api_user_token WHERE (token = '123456789') LIMIT 1;"],"version":"2.2.3"}}
--->http://localhost/new-api/public/index.php?s=Push.Push.pushtype&uid=15844&type=jifen&code=10&token=123456789&statu=123456________
--->test.yusj.vip?s=User.User.Tokenverify&token=123456789
返回结果:{"ret":200,"data":false,"msg":"","debug":{"stack":["[#0 - 0ms]\/home\/www\/default\/test\/public\/index.php(8)","[#1 - 99.4ms - PHALAPI_RESPONSE]\/home\/www\/default\/test\/vendor\/phalapi\/kernal\/src\/PhalApi.php(46)","[#2 - 110.5ms - PHALAPI_FINISH]\/home\/www\/default\/test\/vendor\/phalapi\/kernal\/src\/PhalApi.php(74)"],"sqls":["[1 - 0.82ms]SELECT * FROM api_user_token WHERE (token = '123456789') LIMIT 1;"],"version":"2.2.3"}}
--->http://localhost/new-api/public/index.php?s=Push.Push.pushtype&uid=15844&type=jifen&code=10&token=123456789&statu=123456_______
--->test.yusj.vip?s=User.User.Tokenverify&token=123456789
返回结果:{"ret":200,"data":false,"msg":"","debug":{"stack":["[#0 - 0ms]\/home\/www\/default\/test\/public\/index.php(8)","[#1 - 98.1ms - PHALAPI_RESPONSE]\/home\/www\/default\/test\/vendor\/phalapi\/kernal\/src\/PhalApi.php(46)","[#2 - 109.3ms - PHALAPI_FINISH]\/home\/www\/default\/test\/vendor\/phalapi\/kernal\/src\/PhalApi.php(74)"],"sqls":["[1 - 0.77ms]SELECT * FROM api_user_token WHERE (token = '123456789') LIMIT 1;"],"version":"2.2.3"}}
--->http://localhost/new-api/public/index.php?s=Push.Push.pushtype&uid=15844&type=jifen&code=10&token=123456789&statu=123456______
--->test.yusj.vip?s=User.User.Tokenverify&token=123456789
返回结果:{"ret":200,"data":false,"msg":"","debug":{"stack":["[#0 - 0ms]\/home\/www\/default\/test\/public\/index.php(8)","[#1 - 99.2ms - PHALAPI_RESPONSE]\/home\/www\/default\/test\/vendor\/phalapi\/kernal\/src\/PhalApi.php(46)","[#2 - 110.7ms - PHALAPI_FINISH]\/home\/www\/default\/test\/vendor\/phalapi\/kernal\/src\/PhalApi.php(74)"],"sqls":["[1 - 0.97ms]SELECT * FROM api_user_token WHERE (token = '123456789') LIMIT 1;"],"version":"2.2.3"}}
--->http://localhost/new-api/public/index.php?s=Push.Push.pushtype&uid=15844&type=jifen&code=10&token=123456789&statu=123456_____
--->test.yusj.vip?s=User.User.Tokenverify&token=123456789
返回结果:{"ret":200,"data":false,"msg":"","debug":{"stack":["[#0 - 0ms]\/home\/www\/default\/test\/public\/index.php(8)","[#1 - 100.1ms - PHALAPI_RESPONSE]\/home\/www\/default\/test\/vendor\/phalapi\/kernal\/src\/PhalApi.php(46)","[#2 - 112ms - PHALAPI_FINISH]\/home\/www\/default\/test\/vendor\/phalapi\/kernal\/src\/PhalApi.php(74)"],"sqls":["[1 - 0.97ms]SELECT * FROM api_user_token WHERE (token = '123456789') LIMIT 1;"],"version":"2.2.3"}}
--->http://localhost/new-api/public/index.php?s=Push.Push.pushtype&uid=15844&type=jifen&code=10&token=123456789&statu=123456____
--->test.yusj.vip?s=User.User.Tokenverify&token=123456789
返回结果:{"ret":200,"data":false,"msg":"","debug":{"stack":["[#0 - 0ms]\/home\/www\/default\/test\/public\/index.php(8)","[#1 - 100.5ms - PHALAPI_RESPONSE]\/home\/www\/default\/test\/vendor\/phalapi\/kernal\/src\/PhalApi.php(46)","[#2 - 112.4ms - PHALAPI_FINISH]\/home\/www\/default\/test\/vendor\/phalapi\/kernal\/src\/PhalApi.php(74)"],"sqls":["[1 - 0.9ms]SELECT * FROM api_user_token WHERE (token = '123456789') LIMIT 1;"],"version":"2.2.3"}}
--->http://localhost/new-api/public/index.php?s=Push.Push.pushtype&uid=15844&type=jifen&code=10&token=123456789&statu=123456___
--->test.yusj.vip?s=User.User.Tokenverify&token=123456789
返回结果:{"ret":200,"data":false,"msg":"","debug":{"stack":["[#0 - 0ms]\/home\/www\/default\/test\/public\/index.php(8)","[#1 - 98.2ms - PHALAPI_RESPONSE]\/home\/www\/default\/test\/vendor\/phalapi\/kernal\/src\/PhalApi.php(46)","[#2 - 109.7ms - PHALAPI_FINISH]\/home\/www\/default\/test\/vendor\/phalapi\/kernal\/src\/PhalApi.php(74)"],"sqls":["[1 - 0.96ms]SELECT * FROM api_user_token WHERE (token = '123456789') LIMIT 1;"],"version":"2.2.3"}}
--->http://localhost/new-api/public/index.php?s=Push.Push.pushtype&uid=15844&type=jifen&code=10&token=123456789&statu=123456__
--->test.yusj.vip?s=User.User.Tokenverify&token=123456789
返回结果:{"ret":200,"data":false,"msg":"","debug":{"stack":["[#0 - 0ms]\/home\/www\/default\/test\/public\/index.php(8)","[#1 - 99.3ms - PHALAPI_RESPONSE]\/home\/www\/default\/test\/vendor\/phalapi\/kernal\/src\/PhalApi.php(46)","[#2 - 110.6ms - PHALAPI_FINISH]\/home\/www\/default\/test\/vendor\/phalapi\/kernal\/src\/PhalApi.php(74)"],"sqls":["[1 - 0.84ms]SELECT * FROM api_user_token WHERE (token = '123456789') LIMIT 1;"],"version":"2.2.3"}}
--->http://localhost/new-api/public/index.php?s=Push.Push.pushtype&uid=15844&type=jifen&code=10&token=123456789&statu=123456_
--->test.yusj.vip?s=User.User.Tokenverify&token=123456789
返回结果:{"ret":200,"data":false,"msg":"","debug":{"stack":["[#0 - 0ms]\/home\/www\/default\/test\/public\/index.php(8)","[#1 - 99.8ms - PHALAPI_RESPONSE]\/home\/www\/default\/test\/vendor\/phalapi\/kernal\/src\/PhalApi.php(46)","[#2 - 111.4ms - PHALAPI_FINISH]\/home\/www\/default\/test\/vendor\/phalapi\/kernal\/src\/PhalApi.php(74)"],"sqls":["[1 - 0.82ms]SELECT * FROM api_user_token WHERE (token = '123456789') LIMIT 1;"],"version":"2.2.3"}}
--->http://localhost/new-api/public/index.php?s=Push.Push.pushtype&uid=15844&type=jifen&code=10&token=123456789&statu=123456
--->test.yusj.vip?s=User.User.Tokenverify&token=123456789
返回结果:{"ret":200,"data":false,"msg":"","debug":{"stack":["[#0 - 0ms]\/home\/www\/default\/test\/public\/index.php(8)","[#1 - 99.6ms - PHALAPI_RESPONSE]\/home\/www\/default\/test\/vendor\/phalapi\/kernal\/src\/PhalApi.php(46)","[#2 - 110.6ms - PHALAPI_FINISH]\/home\/www\/default\/test\/vendor\/phalapi\/kernal\/src\/PhalApi.php(74)"],"sqls":["[1 - 0.82ms]SELECT * FROM api_user_token WHERE (token = '123456789') LIMIT 1;"],"version":"2.2.3"}}
oNIxG56z7NaI9bKz1531902887--->http://localhost/new-api/public/index.php?s=Push.Push.pushtype&uid=15844&type=jifen&code=10&token=cOLoKtPsTXzwiSpx&statu=123456
oNIxG56z7NaI9bKz1531902887--->test.yusj.vip?s=User.User.Tokenverify&token=cOLoKtPsTXzwiSpx
返回结果:{"ret":200,"data":"20057","msg":"","debug":{"stack":["[#0 - 0ms]\/home\/www\/default\/test\/public\/index.php(8)","[#1 - 103.1ms - PHALAPI_RESPONSE]\/home\/www\/default\/test\/vendor\/phalapi\/kernal\/src\/PhalApi.php(46)","[#2 - 106ms - PHALAPI_FINISH]\/home\/www\/default\/test\/vendor\/phalapi\/kernal\/src\/PhalApi.php(74)"],"sqls":[],"version":"2.2.3"}}
--->http://localhost/new-api/public/index.php?s=Push.Push.pushtype&uid=15844&type=jifen&code=10&token=123456789&statu=123456_______________
--->test.yusj.vip?s=User.User.Tokenverify&token=123456789
返回结果:{"ret":200,"data":false,"msg":"","debug":{"stack":["[#0 - 0ms]\/home\/www\/default\/test\/public\/index.php(8)","[#1 - 100.7ms - PHALAPI_RESPONSE]\/home\/www\/default\/test\/vendor\/phalapi\/kernal\/src\/PhalApi.php(46)","[#2 - 112.6ms - PHALAPI_FINISH]\/home\/www\/default\/test\/vendor\/phalapi\/kernal\/src\/PhalApi.php(74)"],"sqls":["[1 - 0.97ms]SELECT * FROM api_user_token WHERE (token = '123456789') LIMIT 1;"],"version":"2.2.3"}}
--->http://localhost/new-api/public/index.php?s=Push.Push.pushtype&uid=15844&type=jifen&code=10&token=123456789&statu=123456______________
--->test.yusj.vip?s=User.User.Tokenverify&token=123456789
返回结果:{"ret":200,"data":false,"msg":"","debug":{"stack":["[#0 - 0ms]\/home\/www\/default\/test\/public\/index.php(8)","[#1 - 102.1ms - PHALAPI_RESPONSE]\/home\/www\/default\/test\/vendor\/phalapi\/kernal\/src\/PhalApi.php(46)","[#2 - 114.5ms - PHALAPI_FINISH]\/home\/www\/default\/test\/vendor\/phalapi\/kernal\/src\/PhalApi.php(74)"],"sqls":["[1 - 1.05ms]SELECT * FROM api_user_token WHERE (token = '123456789') LIMIT 1;"],"version":"2.2.3"}}
--->http://localhost/new-api/public/index.php?s=Push.Push.pushtype&uid=15844&type=jifen&code=10&token=123456789&statu=123456_____________
--->test.yusj.vip?s=User.User.Tokenverify&token=123456789
返回结果:{"ret":200,"data":false,"msg":"","debug":{"stack":["[#0 - 0ms]\/home\/www\/default\/test\/public\/index.php(8)","[#1 - 101.7ms - PHALAPI_RESPONSE]\/home\/www\/default\/test\/vendor\/phalapi\/kernal\/src\/PhalApi.php(46)","[#2 - 114.6ms - PHALAPI_FINISH]\/home\/www\/default\/test\/vendor\/phalapi\/kernal\/src\/PhalApi.php(74)"],"sqls":["[1 - 0.9ms]SELECT * FROM api_user_token WHERE (token = '123456789') LIMIT 1;"],"version":"2.2.3"}}
--->http://localhost/new-api/public/index.php?s=Push.Push.pushtype&uid=15844&type=jifen&code=10&token=123456789&statu=123456____________
--->test.yusj.vip?s=User.User.Tokenverify&token=123456789
返回结果:{"ret":200,"data":false,"msg":"","debug":{"stack":["[#0 - 0ms]\/home\/www\/default\/test\/public\/index.php(8)","[#1 - 106ms - PHALAPI_RESPONSE]\/home\/www\/default\/test\/vendor\/phalapi\/kernal\/src\/PhalApi.php(46)","[#2 - 119ms - PHALAPI_FINISH]\/home\/www\/default\/test\/vendor\/phalapi\/kernal\/src\/PhalApi.php(74)"],"sqls":["[1 - 1.16ms]SELECT * FROM api_user_token WHERE (token = '123456789') LIMIT 1;"],"version":"2.2.3"}}
--->http://localhost/new-api/public/index.php?s=Push.Push.pushtype&uid=15844&type=jifen&code=10&token=123456789&statu=123456___________
--->test.yusj.vip?s=User.User.Tokenverify&token=123456789
返回结果:{"ret":200,"data":false,"msg":"","debug":{"stack":["[#0 - 0ms]\/home\/www\/default\/test\/public\/index.php(8)","[#1 - 114.3ms - PHALAPI_RESPONSE]\/home\/www\/default\/test\/vendor\/phalapi\/kernal\/src\/PhalApi.php(46)","[#2 - 127.5ms - PHALAPI_FINISH]\/home\/www\/default\/test\/vendor\/phalapi\/kernal\/src\/PhalApi.php(74)"],"sqls":["[1 - 1.07ms]SELECT * FROM api_user_token WHERE (token = '123456789') LIMIT 1;"],"version":"2.2.3"}}
--->http://localhost/new-api/public/index.php?s=Push.Push.pushtype&uid=15844&type=jifen&code=10&token=123456789&statu=123456__________
--->test.yusj.vip?s=User.User.Tokenverify&token=123456789
返回结果:{"ret":200,"data":false,"msg":"","debug":{"stack":["[#0 - 0ms]\/home\/www\/default\/test\/public\/index.php(8)","[#1 - 101.6ms - PHALAPI_RESPONSE]\/home\/www\/default\/test\/vendor\/phalapi\/kernal\/src\/PhalApi.php(46)","[#2 - 113.6ms - PHALAPI_FINISH]\/home\/www\/default\/test\/vendor\/phalapi\/kernal\/src\/PhalApi.php(74)"],"sqls":["[1 - 0.91ms]SELECT * FROM api_user_token WHERE (token = '123456789') LIMIT 1;"],"version":"2.2.3"}}
--->http://localhost/new-api/public/index.php?s=Push.Push.pushtype&uid=15844&type=jifen&code=10&token=123456789&statu=123456_________
--->test.yusj.vip?s=User.User.Tokenverify&token=123456789
返回结果:{"ret":200,"data":false,"msg":"","debug":{"stack":["[#0 - 0ms]\/home\/www\/default\/test\/public\/index.php(8)","[#1 - 100.9ms - PHALAPI_RESPONSE]\/home\/www\/default\/test\/vendor\/phalapi\/kernal\/src\/PhalApi.php(46)","[#2 - 112.9ms - PHALAPI_FINISH]\/home\/www\/default\/test\/vendor\/phalapi\/kernal\/src\/PhalApi.php(74)"],"sqls":["[1 - 0.9ms]SELECT * FROM api_user_token WHERE (token = '123456789') LIMIT 1;"],"version":"2.2.3"}}
--->http://localhost/new-api/public/index.php?s=Push.Push.pushtype&uid=15844&type=jifen&code=10&token=123456789&statu=123456________
--->test.yusj.vip?s=User.User.Tokenverify&token=123456789
返回结果:{"ret":200,"data":false,"msg":"","debug":{"stack":["[#0 - 0ms]\/home\/www\/default\/test\/public\/index.php(8)","[#1 - 101.5ms - PHALAPI_RESPONSE]\/home\/www\/default\/test\/vendor\/phalapi\/kernal\/src\/PhalApi.php(46)","[#2 - 113.2ms - PHALAPI_FINISH]\/home\/www\/default\/test\/vendor\/phalapi\/kernal\/src\/PhalApi.php(74)"],"sqls":["[1 - 0.85ms]SELECT * FROM api_user_token WHERE (token = '123456789') LIMIT 1;"],"version":"2.2.3"}}
--->http://localhost/new-api/public/index.php?s=Push.Push.pushtype&uid=15844&type=jifen&code=10&token=123456789&statu=123456_______
--->test.yusj.vip?s=User.User.Tokenverify&token=123456789
返回结果:{"ret":200,"data":false,"msg":"","debug":{"stack":["[#0 - 0ms]\/home\/www\/default\/test\/public\/index.php(8)","[#1 - 104.9ms - PHALAPI_RESPONSE]\/home\/www\/default\/test\/vendor\/phalapi\/kernal\/src\/PhalApi.php(46)","[#2 - 117.6ms - PHALAPI_FINISH]\/home\/www\/default\/test\/vendor\/phalapi\/kernal\/src\/PhalApi.php(74)"],"sqls":["[1 - 0.93ms]SELECT * FROM api_user_token WHERE (token = '123456789') LIMIT 1;"],"version":"2.2.3"}}
--->http://localhost/new-api/public/index.php?s=Push.Push.pushtype&uid=15844&type=jifen&code=10&token=123456789&statu=123456______
--->test.yusj.vip?s=User.User.Tokenverify&token=123456789
返回结果:{"ret":200,"data":false,"msg":"","debug":{"stack":["[#0 - 0ms]\/home\/www\/default\/test\/public\/index.php(8)","[#1 - 103.9ms - PHALAPI_RESPONSE]\/home\/www\/default\/test\/vendor\/phalapi\/kernal\/src\/PhalApi.php(46)","[#2 - 116.6ms - PHALAPI_FINISH]\/home\/www\/default\/test\/vendor\/phalapi\/kernal\/src\/PhalApi.php(74)"],"sqls":["[1 - 1.06ms]SELECT * FROM api_user_token WHERE (token = '123456789') LIMIT 1;"],"version":"2.2.3"}}
--->http://localhost/new-api/public/index.php?s=Push.Push.pushtype&uid=15844&type=jifen&code=10&token=123456789&statu=123456_____
--->test.yusj.vip?s=User.User.Tokenverify&token=123456789
返回结果:{"ret":200,"data":false,"msg":"","debug":{"stack":["[#0 - 0ms]\/home\/www\/default\/test\/public\/index.php(8)","[#1 - 104.7ms - PHALAPI_RESPONSE]\/home\/www\/default\/test\/vendor\/phalapi\/kernal\/src\/PhalApi.php(46)","[#2 - 116.7ms - PHALAPI_FINISH]\/home\/www\/default\/test\/vendor\/phalapi\/kernal\/src\/PhalApi.php(74)"],"sqls":["[1 - 0.9ms]SELECT * FROM api_user_token WHERE (token = '123456789') LIMIT 1;"],"version":"2.2.3"}}
--->http://localhost/new-api/public/index.php?s=Push.Push.pushtype&uid=15844&type=jifen&code=10&token=123456789&statu=123456____
--->test.yusj.vip?s=User.User.Tokenverify&token=123456789
返回结果:{"ret":200,"data":false,"msg":"","debug":{"stack":["[#0 - 0ms]\/home\/www\/default\/test\/public\/index.php(8)","[#1 - 101.4ms - PHALAPI_RESPONSE]\/home\/www\/default\/test\/vendor\/phalapi\/kernal\/src\/PhalApi.php(46)","[#2 - 113.5ms - PHALAPI_FINISH]\/home\/www\/default\/test\/vendor\/phalapi\/kernal\/src\/PhalApi.php(74)"],"sqls":["[1 - 0.94ms]SELECT * FROM api_user_token WHERE (token = '123456789') LIMIT 1;"],"version":"2.2.3"}}
--->http://localhost/new-api/public/index.php?s=Push.Push.pushtype&uid=15844&type=jifen&code=10&token=123456789&statu=123456___
--->test.yusj.vip?s=User.User.Tokenverify&token=123456789
返回结果:{"ret":200,"data":false,"msg":"","debug":{"stack":["[#0 - 0ms]\/home\/www\/default\/test\/public\/index.php(8)","[#1 - 101.5ms - PHALAPI_RESPONSE]\/home\/www\/default\/test\/vendor\/phalapi\/kernal\/src\/PhalApi.php(46)","[#2 - 114.2ms - PHALAPI_FINISH]\/home\/www\/default\/test\/vendor\/phalapi\/kernal\/src\/PhalApi.php(74)"],"sqls":["[1 - 0.99ms]SELECT * FROM api_user_token WHERE (token = '123456789') LIMIT 1;"],"version":"2.2.3"}}
--->http://localhost/new-api/public/index.php?s=Push.Push.pushtype&uid=15844&type=jifen&code=10&token=123456789&statu=123456__
--->test.yusj.vip?s=User.User.Tokenverify&token=123456789
返回结果:{"ret":200,"data":false,"msg":"","debug":{"stack":["[#0 - 0ms]\/home\/www\/default\/test\/public\/index.php(8)","[#1 - 101.3ms - PHALAPI_RESPONSE]\/home\/www\/default\/test\/vendor\/phalapi\/kernal\/src\/PhalApi.php(46)","[#2 - 114.1ms - PHALAPI_FINISH]\/home\/www\/default\/test\/vendor\/phalapi\/kernal\/src\/PhalApi.php(74)"],"sqls":["[1 - 1.05ms]SELECT * FROM api_user_token WHERE (token = '123456789') LIMIT 1;"],"version":"2.2.3"}}
--->http://localhost/new-api/public/index.php?s=Push.Push.pushtype&uid=15844&type=jifen&code=10&token=123456789&statu=123456_
--->test.yusj.vip?s=User.User.Tokenverify&token=123456789
返回结果:{"ret":200,"data":false,"msg":"","debug":{"stack":["[#0 - 0ms]\/home\/www\/default\/test\/public\/index.php(8)","[#1 - 101.2ms - PHALAPI_RESPONSE]\/home\/www\/default\/test\/vendor\/phalapi\/kernal\/src\/PhalApi.php(46)","[#2 - 113.2ms - PHALAPI_FINISH]\/home\/www\/default\/test\/vendor\/phalapi\/kernal\/src\/PhalApi.php(74)"],"sqls":["[1 - 0.97ms]SELECT * FROM api_user_token WHERE (token = '123456789') LIMIT 1;"],"version":"2.2.3"}}
--->http://localhost/new-api/public/index.php?s=Push.Push.pushtype&uid=15844&type=jifen&code=10&token=123456789&statu=123456
--->test.yusj.vip?s=User.User.Tokenverify&token=123456789
返回结果:{"ret":200,"data":false,"msg":"","debug":{"stack":["[#0 - 0ms]\/home\/www\/default\/test\/public\/index.php(8)","[#1 - 100.9ms - PHALAPI_RESPONSE]\/home\/www\/default\/test\/vendor\/phalapi\/kernal\/src\/PhalApi.php(46)","[#2 - 113.1ms - PHALAPI_FINISH]\/home\/www\/default\/test\/vendor\/phalapi\/kernal\/src\/PhalApi.php(74)"],"sqls":["[1 - 0.91ms]SELECT * FROM api_user_token WHERE (token = '123456789') LIMIT 1;"],"version":"2.2.3"}}
ExNYkgTbYC1vSuKt1531903800--->http://localhost/new-api/public/index.php?s=Push.Push.pushtype&uid=15844&type=jifen&code=10&token=456789&statu=123456
ExNYkgTbYC1vSuKt1531903800--->test.yusj.vip?s=User.User.Tokenverify&token=123456789
返回结果:{"ret":200,"data":false,"msg":"","debug":{"stack":["[#0 - 0ms]\/home\/www\/default\/test\/public\/index.php(8)","[#1 - 99.9ms - PHALAPI_RESPONSE]\/home\/www\/default\/test\/vendor\/phalapi\/kernal\/src\/PhalApi.php(46)","[#2 - 111.8ms - PHALAPI_FINISH]\/home\/www\/default\/test\/vendor\/phalapi\/kernal\/src\/PhalApi.php(74)"],"sqls":["[1 - 0.96ms]SELECT * FROM api_user_token WHERE (token = '123456789') LIMIT 1;"],"version":"2.2.3"}}
